\relax 
\providecommand\hyper@newdestlabel[2]{}
\providecommand\HyperFirstAtBeginDocument{\AtBeginDocument}
\HyperFirstAtBeginDocument{\ifx\hyper@anchor\@undefined
\global\let\oldnewlabel\newlabel
\gdef\newlabel#1#2{\newlabelxx{#1}#2}
\gdef\newlabelxx#1#2#3#4#5#6{\oldnewlabel{#1}{{#2}{#3}}}
\AtEndDocument{\ifx\hyper@anchor\@undefined
\let\newlabel\oldnewlabel
\fi}
\fi}
\global\let\hyper@last\relax 
\gdef\HyperFirstAtBeginDocument#1{#1}
\providecommand*\HyPL@Entry[1]{}
\HyPL@Entry{0<</S/D>>}
\providecommand \oddpage@label [2]{}
\xpglanginauxtrue 
\selectlanguage *{english}
\@writefile{toc}{\selectlanguage *{english}}
\xpglanginauxfalse 
\oddpage@label{1}{1}
\pgfsyspdfmark {pgfid1}{3729359}{48199251}
\HyPL@Entry{1<</S/r>>}
\HyPL@Entry{2<</S/D>>}
\newlabel{index::doc}{{}{1}{}{section*.2}{}}
\newlabel{Introduction:id1}{{}{1}{}{section*.3}{}}
\newlabel{Introduction:id2}{{}{1}{}{section*.4}{}}
\newlabel{Introduction:id3}{{}{1}{}{section*.5}{}}
\newlabel{Introduction:id4}{{}{1}{}{section*.6}{}}
\newlabel{Introduction:id5}{{}{1}{}{section*.7}{}}
\newlabel{Introduction:id6}{{}{1}{}{section*.8}{}}
\newlabel{Introduction:id7}{{}{1}{}{section*.9}{}}
\newlabel{Introduction:id8}{{}{1}{}{section*.10}{}}
\newlabel{Introduction:id9}{{}{1}{}{section*.11}{}}
\newlabel{Introduction:id10}{{}{1}{}{section*.12}{}}
\newlabel{Introduction:id11}{{}{1}{}{section*.13}{}}
\newlabel{Introduction:id12}{{}{1}{}{section*.14}{}}
\newlabel{Introduction:id13}{{}{1}{}{section*.15}{}}
\newlabel{Introduction:id14}{{}{1}{}{section*.16}{}}
\newlabel{Introduction:id15}{{}{1}{}{section*.17}{}}
\newlabel{Introduction:id16}{{}{1}{}{section*.18}{}}
\newlabel{Introduction:id17}{{}{1}{}{section*.19}{}}
\newlabel{Introduction:id18}{{}{1}{}{section*.20}{}}
\@writefile{toc}{\contentsline {chapter}{\numberline {1}Einführung}{2}{chapter.1}\protected@file@percent }
\@writefile{lof}{\addvspace {10\p@ }}
\@writefile{lot}{\addvspace {10\p@ }}
\newlabel{Introduction:einfuhrung}{{1}{2}{Einführung}{chapter.1}{}}
\newlabel{Introduction:section-introduction}{{1}{2}{Einführung}{chapter.1}{}}
\@writefile{toc}{\contentsline {chapter}{\numberline {2}Zu den Vorschriften im Einzelnen}{4}{chapter.2}\protected@file@percent }
\@writefile{lof}{\addvspace {10\p@ }}
\@writefile{lot}{\addvspace {10\p@ }}
\newlabel{Introduction:zu-den-vorschriften-im-einzelnen}{{2}{4}{Zu den Vorschriften im Einzelnen}{chapter.2}{}}
\@writefile{toc}{\contentsline {section}{\numberline {2.1}§ 2 Nr. 1 HITSiG\sphinxhyphen {}E – Begriffsbestimmungen}{4}{section.2.1}\protected@file@percent }
\newlabel{Introduction:nr-1-hitsig-e-begriffsbestimmungen}{{2.1}{4}{§ 2 Nr. 1 HITSiG\sphinxhyphen {}E – Begriffsbestimmungen}{section.2.1}{}}
\@writefile{toc}{\contentsline {section}{\numberline {2.2}§ 2 Nr. 2 HITSiG\sphinxhyphen {}E – Begriffsbestimmungen}{4}{section.2.2}\protected@file@percent }
\newlabel{Introduction:nr-2-hitsig-e-begriffsbestimmungen}{{2.2}{4}{§ 2 Nr. 2 HITSiG\sphinxhyphen {}E – Begriffsbestimmungen}{section.2.2}{}}
\@writefile{toc}{\contentsline {section}{\numberline {2.3}§ 2 Nr. 3 HITSiG\sphinxhyphen {}E – Begriffsbestimmungen}{4}{section.2.3}\protected@file@percent }
\newlabel{Introduction:nr-3-hitsig-e-begriffsbestimmungen}{{2.3}{4}{§ 2 Nr. 3 HITSiG\sphinxhyphen {}E – Begriffsbestimmungen}{section.2.3}{}}
\@writefile{toc}{\contentsline {section}{\numberline {2.4}§ 2 Nr. 4 HITSiG\sphinxhyphen {}E – Begriffsbestimmungen}{5}{section.2.4}\protected@file@percent }
\newlabel{Introduction:nr-4-hitsig-e-begriffsbestimmungen}{{2.4}{5}{§ 2 Nr. 4 HITSiG\sphinxhyphen {}E – Begriffsbestimmungen}{section.2.4}{}}
\@writefile{toc}{\contentsline {section}{\numberline {2.5}§ 3 HITSiG\sphinxhyphen {}E – Grundsätze der Informationssicherheit}{5}{section.2.5}\protected@file@percent }
\newlabel{Introduction:hitsig-e-grundsatze-der-informationssicherheit}{{2.5}{5}{§ 3 HITSiG\sphinxhyphen {}E – Grundsätze der Informationssicherheit}{section.2.5}{}}
\@writefile{toc}{\contentsline {section}{\numberline {2.6}§ 4 HITSiG\sphinxhyphen {}E – Die oder der Zentrale Informationssicherheitsbeauftragte der Landesverwaltung}{6}{section.2.6}\protected@file@percent }
\newlabel{Introduction:hitsig-e-die-oder-der-zentrale-informationssicherheitsbeauftragte-der-landesverwaltung}{{2.6}{6}{§ 4 HITSiG\sphinxhyphen {}E – Die oder der Zentrale Informationssicherheitsbeauftragte der Landesverwaltung}{section.2.6}{}}
\@writefile{toc}{\contentsline {section}{\numberline {2.7}§ 5 HITSiG\sphinxhyphen {}E – Zentrum für Informationssicherheit}{6}{section.2.7}\protected@file@percent }
\newlabel{Introduction:hitsig-e-zentrum-fur-informationssicherheit}{{2.7}{6}{§ 5 HITSiG\sphinxhyphen {}E – Zentrum für Informationssicherheit}{section.2.7}{}}
\@writefile{toc}{\contentsline {section}{\numberline {2.8}§ 6 HITSiG\sphinxhyphen {}E – Zentraler IT\sphinxhyphen {}Dienstleister des Landes}{6}{section.2.8}\protected@file@percent }
\newlabel{Introduction:hitsig-e-zentraler-it-dienstleister-des-landes}{{2.8}{6}{§ 6 HITSiG\sphinxhyphen {}E – Zentraler IT\sphinxhyphen {}Dienstleister des Landes}{section.2.8}{}}
\@writefile{toc}{\contentsline {section}{\numberline {2.9}§ 7 HITSiG\sphinxhyphen {}E – Datenverarbeitung}{7}{section.2.9}\protected@file@percent }
\newlabel{Introduction:hitsig-e-datenverarbeitung}{{2.9}{7}{§ 7 HITSiG\sphinxhyphen {}E – Datenverarbeitung}{section.2.9}{}}
\@writefile{toc}{\contentsline {section}{\numberline {2.10}§ 8 HITSiG\sphinxhyphen {}E – Verwendung von auf informationstechnischen Systemen gespeicherten Daten}{7}{section.2.10}\protected@file@percent }
\newlabel{Introduction:hitsig-e-verwendung-von-auf-informationstechnischen-systemen-gespeicherten-daten}{{2.10}{7}{§ 8 HITSiG\sphinxhyphen {}E – Verwendung von auf informationstechnischen Systemen gespeicherten Daten}{section.2.10}{}}
\@writefile{toc}{\contentsline {section}{\numberline {2.11}§ 10 HITSiG\sphinxhyphen {}E – Auswertung ohne Inhaltsdaten}{8}{section.2.11}\protected@file@percent }
\newlabel{Introduction:hitsig-e-auswertung-ohne-inhaltsdaten}{{2.11}{8}{§ 10 HITSiG\sphinxhyphen {}E – Auswertung ohne Inhaltsdaten}{section.2.11}{}}
\@writefile{toc}{\contentsline {section}{\numberline {2.12}§ 11 HITSiG\sphinxhyphen {}E – Auswertung von Inhaltsdaten}{8}{section.2.12}\protected@file@percent }
\newlabel{Introduction:hitsig-e-auswertung-von-inhaltsdaten}{{2.12}{8}{§ 11 HITSiG\sphinxhyphen {}E – Auswertung von Inhaltsdaten}{section.2.12}{}}
\@writefile{toc}{\contentsline {section}{\numberline {2.13}§ 14 HITSiG\sphinxhyphen {}E – Gewährleistung der Informationssicherheit und des Datenschutzes}{8}{section.2.13}\protected@file@percent }
\newlabel{Introduction:hitsig-e-gewahrleistung-der-informationssicherheit-und-des-datenschutzes}{{2.13}{8}{§ 14 HITSiG\sphinxhyphen {}E – Gewährleistung der Informationssicherheit und des Datenschutzes}{section.2.13}{}}
\@writefile{toc}{\contentsline {section}{\numberline {2.14}§ 16 HITSiG\sphinxhyphen {}E – Wiederherstellung der Sicherheit oder Funktionsfähigkeit informationstechnischer Systeme in herausgehobenen Fällen der Beeinträchtigung}{9}{section.2.14}\protected@file@percent }
\newlabel{Introduction:hitsig-e-wiederherstellung-der-sicherheit-oder-funktionsfahigkeit-informationstechnischer-systeme-in-herausgehobenen-fallen-der-beeintrachtigung}{{2.14}{9}{§ 16 HITSiG\sphinxhyphen {}E – Wiederherstellung der Sicherheit oder Funktionsfähigkeit informationstechnischer Systeme in herausgehobenen Fällen der Beeinträchtigung}{section.2.14}{}}
\@writefile{toc}{\contentsline {section}{\numberline {2.15}§ 17 HITSiG\sphinxhyphen {}E – Information der Betroffenen}{9}{section.2.15}\protected@file@percent }
\newlabel{Introduction:hitsig-e-information-der-betroffenen}{{2.15}{9}{§ 17 HITSiG\sphinxhyphen {}E – Information der Betroffenen}{section.2.15}{}}
\@writefile{toc}{\contentsline {chapter}{Kontakt}{10}{section*.22}\protected@file@percent }
\oddpage@label{2}{10}
\pgfsyspdfmark {pgfid2}{35428917}{1864680}
\newlabel{LastPage}{{}{0}{}{page.0}{}}
\xdef\lastpage@lastpage{0}
\xdef\lastpage@lastpageHy{0}
\gdef \@abspage@last{12}
